%YAML 1.1
%TAG !u! tag:unity3d.com,2011:
--- !u!114 &11400000
MonoBehaviour:
  m_ObjectHideFlags: 0
  m_CorrespondingSourceObject: {fileID: 0}
  m_PrefabInstance: {fileID: 0}
  m_PrefabAsset: {fileID: 0}
  m_GameObject: {fileID: 0}
  m_Enabled: 1
  m_EditorHideFlags: 0
  m_Script: {fileID: 11500000, guid: ca680ca2bd3ec224caf2291114cbdd69, type: 3}
  m_Name: PORTLAND WHITE
  m_EditorClassIdentifier: 
  wallName: Wall
  materials:
  - {fileID: 2100000, guid: 466ceb2c55172d64fb0a0372e36519ec, type: 2}
  - {fileID: 2100000, guid: c6d0a4504480d334ab51246239720493, type: 2}
  - {fileID: 2100000, guid: 1c4e12a5536ea2449ac68d38b515c1bc, type: 2}
  - {fileID: 2100000, guid: a6fbace2dc992ab4797a9b36b39ba2f6, type: 2}
  texture: {fileID: 0}
  style: 2
  isRandom: 1
  wallHeight: 3.38
  wallWidth: 5.42
  tileHeight: 3.38
  tileWidth: 2.35
